46
12  11    23  10    91  16   159  17   181  20   195  14
210  20   214  29   238  31   236  43   242  47   268  31
282  18   288   5   296   4   309  23   298  36   299  50
283  67   277  96   270 114   257 134   261 157   270 176
263 180   251 169   238 154   212 152   204 163   181 160
162 168   157 180   155 190   144 187   131 167   120 163
112 171   101 158    88 146    77 150    53 142    33 140
 19 124     8 112     2  74     6  56 
130
   274 101   155  52     7  83    37  73   267  74   163 164    57  37
   157 122   141  74   102 154   295  14   272  50    24  22   259 103
   233  53   120 146    32  33    77  66   158  81   178 143    91  34
   206  96   196  85   262 113    87 144    68  96   135 166   259  47
   128  48   262  87   214 134    79  31    24 111   194  74   175  29
   213 103    96  22   153 113   253 170    99  55   152 175   230  68
   278  72    49 121   117  55    92 131   193 140   158  35   242  61
   204  56    94  93   130  98    82 135   146 148   250 128    14  72
   176  85    66  49   115  41   219 125    84  82    62  23   118 114
    39 134    54  89     7  61    70 131   133 124   144  54   186  26
   125 131    44  21   137 115    30  97   224  90   222  38    45 102
    64 123   239  95   146 162    81  95   294  34     8  98   197  47
   200 132   151 139   207  28   108 134   231 134    17  55   236 119
    75 120   179 106   152  95   247 159   248 109    87  43   251  53
   127  63   222 142   111  63   254  65   182  72   121  31   215  59
   100 102   246  86   141  31   282  58   171  63   186 116   112 104
    96 115   100  73    27  80   165 103   203 163   157  66    60 103
    12  26   146 184   172 156    71  58    41  43   276  35   195 101
   234  78   231 147   118  71   262  57