46
12  11    23  10    91  16   159  17   181  20   195  14
210  20   214  29   238  31   236  43   242  47   268  31
282  18   288   5   296   4   309  23   298  36   299  50
283  67   277  96   270 114   257 134   261 157   270 176
263 180   251 169   238 154   212 152   204 163   181 160
162 168   157 180   155 190   144 187   131 167   120 163
112 171   101 158    88 146    77 150    53 142    33 140
 19 124     8 112     2  74     6  56 
115
   292  17   102  80   214 118   128  34    69  42   210  98   125 142
   139  99   160 163   296  41    30 109   132  83    31  44    39  56
   190  70   158  47   236 107   288  61    97  56   167  77    34 100
   140  59   259 111   178 122    55  47   227  68   254  54   169  54
   196 130   159  71    56  82   278  37   153 127   161  33   114  77
   228  92    97 106   121  64    47 110    15  28   269  96   215  36
   156 139    82  98    65 146   126  74   233 133   112  33    87  87
   133 158     8 104    16  64    98 125    44  26   263  58   242 118
   257  71   204  32   108 130    72 109   184 106   253  89   118 111
   225 145   142  28    77  34    89 117    71  59    90  63   135  50
    55  34   289  33    97 152   191 147   201  88   162 123    86  44
   183  49   212 149   105 143     4  69   130 108   265 178    22  52
    73 133    92  21   175 148   264 121   150  96   241  60   241  74
   117 147   170 115    71  92   256 132    55 117   221 107   123  48
    47  97   103  65   192  92   152 150    47  64    21  95   183  25
   104  39   134 122   203 163   232  49   182 135    97  30   265  84
   156  82   211  82   116  99