46
12  11    23  10    91  16   159  17   181  20   195  14
210  20   214  29   238  31   236  43   242  47   268  31
282  18   288   5   296   4   309  23   298  36   299  50
283  67   277  96   270 114   257 134   261 157   270 176
263 180   251 169   238 154   212 152   204 163   181 160
162 168   157 180   155 190   144 187   131 167   120 163
112 171   101 158    88 146    77 150    53 142    33 140
 19 124     8 112     2  74     6  56 
140
   235  62   228 129    84  93    28 108   242 154    40  75   156 101
   213  31    46  26    67  59    92  79   242 112   262  94   255  77
     8  56    60  98   106  38   269  83   254 139    51  90    95  91
   121  88    76  51    27  65   115 129   263 170   204  25   145 113
   175  89    49  65   187  87    64  29   260 125   235 144   104 142
   169  40    92  64   171 124    91 123   226 117   204  43   227 102
    79  33   293  23    60  70   220 152   195  29    29  91   120 108
   294  48   213 142    81 108   243  52    17  33    73  81   104 159
   202  61   221  55   207  53    87 141   135 163   187 136    13  84
   123 121    52  45   283  52   144 100   142  67   208 119   144 125
   186 121   192  49   160 140   221  72   180  59    90  38    51 115
    67 123   154 119    22  44   213  99   233  85   182  71    48 128
   161 127   273  43   153  45    41 107   105 104    72  42   137 135
    24 124   195  71    90  51    51 141   107  63   145 159   171 162
   264  65   128 149     9  72    20 100   256 112    20  16   246  83
    35  43   231  43   138 174   203  92   117  29   275  97   196 155
    90 101   134  43    40  88   248  61    59  39    99 132   166  63
   151  56   277  32    62 135   121 159   157  89   242  97   120  72
   157  24   177 152   215  88   146 142   223  35   237  76   273  72
   204 106    34 129    54  57   155  69   133  81   166  28   298  33
