46
12  11    23  10    91  16   159  17   181  20   195  14
210  20   214  29   238  31   236  43   242  47   268  31
282  18   288   5   296   4   309  23   298  36   299  50
283  67   277  96   270 114   257 134   261 157   270 176
263 180   251 169   238 154   212 152   204 163   181 160
162 168   157 180   155 190   144 187   131 167   120 163
112 171   101 158    88 146    77 150    53 142    33 140
 19 124     8 112     2  74     6  56 
 75
    14  93    90 106   241  62    80 135   146 148   126 113   136  87
   236  85    46  84   288  51   267  72    78  32    94  78   149 136
   225 122    87  84   127 145    25 107   153  67    15  39   268  54
   200  22    65 142    99 143   116 163    42 106   209 136   220 141
   285  25   237 129    57 101   244  93   277  63   173 142   104  33
   189 145   199  50    98  57    65  19    80  74    74  41   186  85
   142 183   191 107   189  37    29  79    49 129    66  86   247 117
   220  42   188  57    61  53   102 127   157 123   110  64    25  50
   151 169   116  71   115  91    58  68   159 152    41  21   252  81
   217  85    18  74   143  28    37 137   206  78   103  89   213 147
   270  82   197 160   104 162   123  40   142 107